



 Status 


Top Conveyor

{Format("%0."+Trunc(#Decimal:1)+"f",#Min:0)} {#Unit:"mm/s"}
{Format("%0."+Trunc(#Decimal:1)+"f",#Max:100)} {#Unit:"mm/s"}
{Format("%0."+Trunc(#Decimal:1)+"f",(#Max:100-#Min:0)/2+#Min:0)} {#Unit:"mm/s"}
{Format("%0."+Trunc(#Decimal:1)+"f",#Value:BotVFD.reSpeedFBK)} {#Unit:"mm/s"}

{Format("%0."+Trunc(#Decimal:1)+"f",#Min:0)} {#Unit:"mm/s"}
{Format("%0."+Trunc(#Decimal:1)+"f",#Max:60)} {#Unit:"mm/s"}
{Format("%0."+Trunc(#Decimal:1)+"f",(#Max:60-#Min:0)/2+#Min:0)} {#Unit:"mm/s"}
{Format("%0."+Trunc(#Decimal:1)+"f",#Value:TopConv.reSPDfbk)} {#Unit:"mm/s"}
 Command 

Encoder
Counts
{TopConv.ulPLScnt}
{TopConv.ulmm}
mm
Auto
Manual
Encoder Reset
Manual Launcher Control


Load Width(mm):

###

Launcher Destination:

##
Use Launcher Control

Launcher Location

####
Bypass Encoder
Auto SPD (mm/s)
##.#
Man SPD (mm/s)
##.#


Bypass Encoder

