
Save As..
New Recipe..
Open Rcp..
View Recipes
Save Rcp
Insert Row
Load to CPU
Controls

Filename : #############################
Rcp. Loaded: #################
Rcp. Selected: ###################

Belt Speed (mm/s)
Batch Length (mm)
Batch Start SP
Batch Pause SP
Batch Control SD
Selection
PS1
PS2
PS3
PS4
PS5
PS1
PS2
PS3
PS4
PS5
PS6
PS7
PS8
PS9
PS10
PS11
PS12
PS13
PS14
PS15
PS16
PS17
PS18
PS19
PS20
