




1

2

3

4

5

6

7

8

9

10

11

12

13

14

15

16

17

18

20







19





















Logged in as: {UserName}
Recipe Loaded: ##########
Start Time: ##########
Elapsed: ##########
Total Trays Ran: ##########


Rear Tank Temp: ### °C
Front Tank Temp: ### °C
{if(boGstmautorun,"Auto Run In Progress", "Auto Run Stopped")}

Mid Level
Low Level
High Level
Low Level
Front Chamber Temp: #### °C
Rear Chamber Temp: #### °C

   PSR: {rGAbsPsr_kPa} kPa

Mid Level

High Level




Speed: {Conv.reSPDfbk}
