V01.55 - CLASS LIST
Class:stuPScntctr
boHmanSTR|0|0| 
boHmanSTP|0|0| 
boAuxALM|0|0| 
boDOcoil|0|0| 
boDiAux|0|0| 
Class:stuPScomm
boHpsSTR|0|0| 
boHhvSTR|0|0| 
reIaCMDduty|0|2| 
reHVaDUTY|0|2| 
inHManPWRcmd|0|1| 
inHAutoPWRcmd|0|1| 
reHIaDUTY|0|2| 
boDOpsENB|0|0| 
boDOhvENB|0|0| 
boHhvSTP|0|0| 
boHpsSTP|0|0| 
boFbackALM|0|0| 
boMagHtempALM|0|0| 
boHvaLVLchkENB|0|0| 
boHiaERRenb|0|0| 
boIaErrWNG|0|0| 
boIaERRalm|0|0| 
boVAlvlHH|0|0| 
boVAlvlH|0|0|Va Level Low
boVAlvlL|0|0|Va Level High
boValvlLL|0|0| 
reIAerrALMvaVAL|0|2| 
reIAerrALMiaVAL|0|2| 
reVAlvlALMvaVAL|0|2| 
reVAlvlALMiaVAL|0|2| 
reVfCMDduty|0|2| 
inHpwrCMD|0|1| 
reHVaDUTY_2|0|2| 
reHIaDUTY_2|0|2| 
Class:stuPump
bodiAux|0|0| 
boALM|0|0|contactor or temperature alarm
boHAutoMan|0|0| 
boHManSTR|0|0| 
boHManSTP|0|0| 
boPRSDifALM|0|0|Pressure difference alarm
boDIautoSW|0|0| 
Class:stuConv
boHAutoman|0|0| 
boHmanSTR|0|0| 
boHmanSTP|0|0| 
boHalmRST|0|0| 
reHmanSPD|0|2| 
reHautoSPD|0|2| 
boHZeroEnc|0|0| 
boAlm|0|0| 
boRunSTS|0|0| 
ulPLScnt|0|2| 
ulmm|0|2| 
reSPDfbk|0|2| 
inhSTSdisplay|0|1| 
boEncALM|0|0| 
reBATCHlngSP|0|2| 
boDIplsA|0|0| 
boDIplsB|0|0| 
inPLScounter1|0|1| 
inPLScounter2|0|1| 
inPLScounter3|0|1| 
inPLScounter4|0|1| 
inPLScounter5|0|1| 
boZeroSPDalm|0|0| 
boPause|0|0| 
Class:stuBatch
boUsed|0|0| 
uiBatchFrontLocUNIT|0|1| 
uiBatchRearLocUnit|0|1| 
uiBatchWidthUnit|0|1| 
reBATCHlngSP|0|2| 
Class:stuLCR2
boHenb|0|0| 
inRearLoc|0|1| 
inFrntLoc|0|1| 
inALMType|0|1| 
boHAutoMan|0|0| 
boALM|0|0| 
Class:stuFan
boHAutoMan|0|0| 
boHManSTR|0|0| 
boHManSTP|0|0| 
boDOrelay|0|0| 
boHCoolBit|0|0| 
Class:stuNode
inSTS|0|1| 
boALM|0|0| 
Class:stuPressure
inSCL|0|1| 
boSDalm|0|0|only stops conveyor even though description is SD
boWRNG|0|0| 
Class:stuVFD
boHAutoMan|0|1| 
boHManSTR|0|0| 
boHManSTP|0|0| 
boALM|0|0| 
inSPDcmd|0|1| 
boHalmRST|0|0| 
VFDio_boDIalmSTS|0|0| 
boDIsts|0|1| 
boDIcipCOILaux|0|0| 
boDIeducCOILaux|0|0| 
ED1eductorCOIL_boAUXalm|0|0| 
boDORunCMD|0|0| 
Class:stuChillVLV
boHAutoMan|0|0| 
boHManOPN|0|0| 
boHManCLS|0|0| 
boDOopn|0|0| 
Class:stuWATERtank
inTemp|0|1| 
inMaxTemp|0|1| 
inMinTemp|0|1| 
boDIhighLVL|0|0| 
boHIGHtempALM|0|0| 
boDIlowLVL|0|0| 
boDImidLVL|0|0| 
Class:stuCNTCTR
boDIaux|0|0| 
boHAutoMan|0|0| 
boHManSTR|0|0| 
boHManSTP|0|0| 
boDIauxALM|0|0| 
CTL_boALM|0|0| 
Class:stuPEN
strLabel|0|3| 
strTagname|0|3| 
Class:stuCIPvlv
boHAutoMan|0|0| 
boHManOPN|0|0| 
boHManCLS|0|0| 
boDOopn|0|0| 
Class:stuSRV
boHManSTR|0|0| 
boHManSTP|0|0| 
boHAutoMAN|0|0| 
boDIsts|0|0| 
inHspdCMD|0|1| 
Class:stuMLX
temp|0|1| 
overTempALM|0|0| 
Class:stuVLVcoil
CTL_boHAutoMan|0|0| 
CTL_boHManOPN|0|0| 
CTL_boHManCLS|0|0| 
CTL_boTMRalm|0|0| 
IO_boDOopn|0|0| 
CTL_boALM|0|0| 
Class:stuCYL
CTL_boHAutoMan|0|0| 
CTL_boHManEXT|0|0| 
CTL_boHManRET|0|0| 
CTL_boALM|0|0| 
IO_boDIretPOS|0|0| 
IO_boDIextPOS|0|0| 
CTL_boALMext|0|0| 
CTL_boALMret|0|0| 
Class:stuFLOWsnr
boDIflowSW|0|0| 
boALM|0|0| 
Class:stuCYLdoor
CTL_boHAutoMan|0|0| 
CTL_boHManOPN|0|0| 
CTL_boHManCLS|0|0| 
CTL_boTMRalm|0|0| 
IO_boDOopn|0|0| 
CTL_boALM|0|0| 
IO_boDIopnSTS|0|0| 
IO_boDIclsSTS|0|0| 
CTL_boALMopn|0|0| 
CTL_boALMcls|0|0| 
Class:stuHYDcylCTL
CTL_boHAutoMan|0|0| 
CTL_boHManEXT|0|0| 
CTL_boHManRET|0|0| 
CTL_inHextSP|0|1| 
CTL_inHretSP|0|1| 
CTL_boINretPOS|0|0| 
CTL_boINextPOS|0|0| 
CTL_boEXTalm|0|0| 
CTL_boRETalm|0|0| 
CTL_inERRsp|0|1|measured between cmd and sts
CTL_bohJOGext|0|0| 
CTL_bohJOGret|0|0| 
CTL_inhJOGstepSPmm|0|1|steps for jogging in mm
CTL_boSETfbkASextSP|0|0| 
CTL_boSETfbkASretSP|0|0| 
CTL_boSPALM|0|0| 
CTL_inPOS|0|1| 
CTL_inPOScmdMM|0|1| 
Class:stuRecipe
sRCPName|0|3| 
iRcpPS1CurrentSP|0|1| 
iRcpPS2CurrentSP|0|1| 
iRcpPS3CurrentSP|0|1| 
iRcpPS4CurrentSP|0|1| 
iRcpPS5CurrentSP|0|1| 
iRcpPS6CurrentSP|0|1| 
iRcpPS7CurrentSP|0|1| 
iRcpPS8CurrentSP|0|1| 
iRcpPS9CurrentSP|0|1| 
iRcpPS10CurrentSP|0|1| 
iRcpPS11CurrentSP|0|1| 
iRcpPS12CurrentSP|0|1| 
iRcpPS13CurrentSP|0|1| 
iRcpPS14CurrentSP|0|1| 
iRcpPS15CurrentSP|0|1| 
iRcpPS16CurrentSP|0|1| 
iRcpPS17CurrentSP|0|1| 
iRcpPS18CurrentSP|0|1| 
iRcpPS19CurrentSP|0|1| 
iRcpPS20CurrentSP|0|1| 
iRcpBeltSpeedSP|0|2| 
